{
    "count": 515,
    "next": "https://goriva.si/api/v1/search/?franchise=&name=&o=price_95&page=3&position=Ljubljana&radius=",
    "previous": "https://goriva.si/api/v1/search/?franchise=&name=&o=price_95&position=Ljubljana&radius=",
    "results": [
        {
            "pk": 2036,
            "franchise": 1,
            "name": "PETROL LJUBLJANA - CELOV\u0160KA 226",
            "address": "CELOV\u0160KA CESTA 226",
            "lat": 46.081849,
            "lng": 14.479525,
            "prices": {
                "95": 1.495,
                "dizel": 1.462,
                "98": null,
                "100": 1.755,
                "dizel-premium": null,
                "avtoplin-lpg": null,
                "KOEL": null,
                "hvo": null
            },
            "distance": 4121.966402215616,
            "direction": "Ljubljana -> Kranj",
            "open_hours": "NON-STOP",
            "zip_code": "1000"
        },
        {
            "pk": 2057,
            "franchise": 1,
            "name": "PETROL LJUBLJANA - RUDNIK ZAHOD",
            "address": "DOLENJSKA CESTA 242F",
            "lat": 46.01990756,
            "lng": 14.54219888,
            "prices": {
                "95": 1.495,
                "dizel": 1.462,
                "98": null,
                "100": null,
                "dizel-premium": null,
                "avtoplin-lpg": null,
                "KOEL": null,
                "hvo": null
            },
            "distance": 4316.142444374449,
            "direction": "",
            "open_hours": "vsak delavnik 07:00-20:00\r\nsobote 07:00-19:00",
            "zip_code": "1000"
        },
        {
            "pk": 2043,
            "franchise": 1,
            "name": "PETROL LJUBLJANA - RUDNIK VZHOD",
            "address": "DOLENJSKA CESTA 157A",
            "lat": 46.01990066,
            "lng": 14.54272853,
            "prices": {
                "95": 1.495,
                "dizel": 1.462,
                "98": null,
                "100": 1.755,
                "dizel-premium": null,
                "avtoplin-lpg": null,
                "KOEL": null,
                "hvo": null
            },
            "distance": 4342.640765722349,
            "direction": "",
            "open_hours": "vsak delavnik 05:30-21:00\r\nsobote 06:30-21:00\r\nnedelje in prazniki 07:30-21:00",
            "zip_code": "1000"
        },
        {
            "pk": 819,
            "franchise": 2,
            "name": "BS MOL LJUBLJANA ZALO\u0160KA JUG",
            "address": "Zalo\u0161ka 158",
            "lat": 46.05628,
            "lng": 14.562775,
            "prices": {
                "95": 1.495,
                "dizel": 1.462,
                "98": null,
                "100": 1.755,
                "dizel-premium": 1.684,
                "avtoplin-lpg": null,
                "KOEL": null,
                "hvo": null
            },
            "distance": 4365.269264600963,
            "direction": "",
            "open_hours": "Pon-Ned 06:00-22:00",
            "zip_code": "1000"
        },
        {
            "pk": 816,
            "franchise": 4,
            "name": "BS MOL LJUBLJANA LETALI\u0160KA",
            "address": "Letali\u0161ka c. 33b",
            "lat": 46.062474,
            "lng": 14.570349,
            "prices": {
                "95": 1.495,
                "dizel": 1.462,
                "98": null,
                "100": 1.755,
                "dizel-premium": null,
                "avtoplin-lpg": null,
                "KOEL": null,
                "hvo": null
            },
            "distance": 5085.690584391979,
            "direction": "",
            "open_hours": "Pon-Pet 06:00-22:00, Sob 08:00-20:00, Ned/Praz. zaprto",
            "zip_code": "1000"
        },
        {
            "pk": 2129,
            "franchise": 1,
            "name": "PETROL LJUBLJANA - LETALI\u0160KA",
            "address": "LETALI\u0160KA CESTA 38",
            "lat": 46.0615,
            "lng": 14.57315,
            "prices": {
                "95": 1.495,
                "dizel": 1.462,
                "98": null,
                "100": null,
                "dizel-premium": null,
                "avtoplin-lpg": null,
                "KOEL": null,
                "hvo": null
            },
            "distance": 5266.76142224594,
            "direction": "",
            "open_hours": "vsak delavnik 05:30-21:00\r\nsobote 08:00-20:00",
            "zip_code": "1000"
        },
        {
            "pk": 2292,
            "franchise": 13,
            "name": "BS MOL PAY&GO LJUBLJANA TR\u017dA\u0160KA",
            "address": "Tr\u017ea\u0161ka 429",
            "lat": 46.027435,
            "lng": 14.4353,
            "prices": {
                "95": 1.495,
                "dizel": 1.462,
                "98": null,
                "100": null,
                "dizel-premium": null,
                "avtoplin-lpg": null,
                "KOEL": null,
                "hvo": null
            },
            "distance": 6072.841668083608,
            "direction": "",
            "open_hours": "ZIMSKI OBRATOVALNI \u010cAS: \r\n01.11. - 31.3. \r\nPON - SOB : 05.00 - 22.00\r\nNED: 08.00 - 15.00 \r\n\r\nLETNI OBRATOVALNI \u010cAS: \r\n01.04. - 31.10. \r\nPON - NED : 00.00 - 24.00",
            "zip_code": "1000"
        },
        {
            "pk": 2051,
            "franchise": 1,
            "name": "PETROL LJUBLJANA - POLJE",
            "address": "ZALO\u0160KA CESTA 166",
            "lat": 46.053796,
            "lng": 14.587178,
            "prices": {
                "95": 1.495,
                "dizel": 1.462,
                "98": null,
                "100": null,
                "dizel-premium": null,
                "avtoplin-lpg": null,
                "KOEL": 1.103,
                "hvo": null
            },
            "distance": 6206.974110436231,
            "direction": "",
            "open_hours": "vsak delavnik 06:00-21:00\r\nsobote 07:00-20:00",
            "zip_code": "1260"
        },
        {
            "pk": 818,
            "franchise": 2,
            "name": "BS MOL LJUBLJANA CELOV\u0160KA",
            "address": "Celov\u0161ka c. 455",
            "lat": 46.09891,
            "lng": 14.460958,
            "prices": {
                "95": 1.495,
                "dizel": 1.462,
                "98": null,
                "100": 1.755,
                "dizel-premium": null,
                "avtoplin-lpg": null,
                "KOEL": null,
                "hvo": null
            },
            "distance": 6490.004952808587,
            "direction": "",
            "open_hours": "Pon-Ned 00:00-24:00",
            "zip_code": "1210"
        },
        {
            "pk": 2053,
            "franchise": 1,
            "name": "PETROL DOBROVA",
            "address": "POLHOGRAJSKA CESTA 12",
            "lat": 46.0520304,
            "lng": 14.42151956,
            "prices": {
                "95": 1.495,
                "dizel": 1.462,
                "98": null,
                "100": null,
                "dizel-premium": null,
                "avtoplin-lpg": null,
                "KOEL": 1.103,
                "hvo": null
            },
            "distance": 6594.892242728346,
            "direction": "",
            "open_hours": "vsak delavnik 06:00-20:00\r\nsobote 06:00-13:00",
            "zip_code": "1356"
        },
        {
            "pk": 2302,
            "franchise": 19,
            "name": "LOGO BENCINSKI SERVISI d.o.o. PE BREZOVICA",
            "address": "Tr\u017ea\u0161ka cesta 358",
            "lat": 46.026026,
            "lng": 14.4284534,
            "prices": {
                "95": 1.495,
                "dizel": 1.462,
                "98": null,
                "100": null,
                "dizel-premium": null,
                "avtoplin-lpg": null,
                "KOEL": 1.103,
                "hvo": null
            },
            "distance": 6619.299766051399,
            "direction": "",
            "open_hours": "6.00-22.30",
            "zip_code": "1351"
        },
        {
            "pk": 2055,
            "franchise": 1,
            "name": "PETROL LJUBLJANA - \u010cRNU\u010cE, DUNAJSKA",
            "address": "DUNAJSKA CESTA 460",
            "lat": 46.10458934,
            "lng": 14.54127278,
            "prices": {
                "95": 1.495,
                "dizel": 1.462,
                "98": null,
                "100": null,
                "dizel-premium": null,
                "avtoplin-lpg": null,
                "KOEL": null,
                "hvo": null
            },
            "distance": 6620.1929545281,
            "direction": "",
            "open_hours": "vsak delavnik 06:00-20:00\r\nsobote 07:00-13:00",
            "zip_code": "1231"
        },
        {
            "pk": 2128,
            "franchise": 1,
            "name": "PETROL LJUBLJANA - \u010cRNU\u010cE, \u0160TAJERSKA",
            "address": "\u0160TAJERSKA CESTA 10",
            "lat": 46.10584664,
            "lng": 14.5451953,
            "prices": {
                "95": 1.495,
                "dizel": 1.462,
                "98": null,
                "100": 1.755,
                "dizel-premium": null,
                "avtoplin-lpg": null,
                "KOEL": null,
                "hvo": null
            },
            "distance": 6872.9382506722795,
            "direction": "",
            "open_hours": "trenutno zaprto",
            "zip_code": "1231"
        },
        {
            "pk": 2058,
            "franchise": 1,
            "name": "PETROL ZADVOR",
            "address": "CESTA II. GRUPE ODREDOV 48",
            "lat": 46.03588324,
            "lng": 14.59614121,
            "prices": {
                "95": 1.495,
                "dizel": 1.462,
                "98": null,
                "100": null,
                "dizel-premium": null,
                "avtoplin-lpg": null,
                "KOEL": null,
                "hvo": null
            },
            "distance": 7062.9329097647915,
            "direction": "",
            "open_hours": "vsak delavnik 07:00-19:00\r\nsobote 07:00-14:00",
            "zip_code": "1261"
        },
        {
            "pk": 2130,
            "franchise": 1,
            "name": "PETROL LJUBLJANA - ZALOG",
            "address": "ZALO\u0160KA CESTA 255",
            "lat": 46.056932,
            "lng": 14.601065,
            "prices": {
                "95": 1.495,
                "dizel": 1.462,
                "98": null,
                "100": 1.755,
                "dizel-premium": null,
                "avtoplin-lpg": null,
                "KOEL": null,
                "hvo": null
            },
            "distance": 7304.724842309957,
            "direction": "",
            "open_hours": "vsak delavnik 05:00-22:00\r\nsobote 06:00-21:00\r\nnedelje in prazniki 07:00-20:00",
            "zip_code": "1260"
        },
        {
            "pk": 2358,
            "franchise": 5,
            "name": "Shell Brezovica",
            "address": "Tr\u017ea\u0161ka cesta 565",
            "lat": 46.02261874034981,
            "lng": 14.407761204034685,
            "prices": {
                "95": 1.495,
                "dizel": 1.462,
                "98": null,
                "100": 1.789,
                "dizel-premium": 1.839,
                "avtoplin-lpg": null,
                "KOEL": null,
                "hvo": null
            },
            "distance": 8239.279357051271,
            "direction": "",
            "open_hours": "",
            "zip_code": "1351"
        },
        {
            "pk": 2092,
            "franchise": 1,
            "name": "PETROL TRZIN",
            "address": "LJUBLJANSKA CESTA 50",
            "lat": 46.123204,
            "lng": 14.553637,
            "prices": {
                "95": 1.495,
                "dizel": 1.462,
                "98": null,
                "100": 1.755,
                "dizel-premium": 1.685,
                "avtoplin-lpg": 0.829,
                "KOEL": 1.103,
                "hvo": null
            },
            "distance": 8898.604279140853,
            "direction": "",
            "open_hours": "vsak delavnik 21:00-24:00\r\nsobote 21:00-24:00\r\nnedelje in prazniki 19:00-24:00",
            "zip_code": "1236"
        },
        {
            "pk": 2125,
            "franchise": 1,
            "name": "PETROL IG",
            "address": "LJUBLJANSKA CESTA 69",
            "lat": 45.96267202,
            "lng": 14.53000724,
            "prices": {
                "95": 1.495,
                "dizel": 1.462,
                "98": null,
                "100": 1.755,
                "dizel-premium": null,
                "avtoplin-lpg": null,
                "KOEL": 1.103,
                "hvo": null
            },
            "distance": 9875.57113173999,
            "direction": "",
            "open_hours": "vsak delavnik 06:00-20:00\r\nsobote 07:00-20:00\r\nnedelje in prazniki 08:00-19:00",
            "zip_code": "1292"
        },
        {
            "pk": 2054,
            "franchise": 1,
            "name": "PETROL PODPE\u010c",
            "address": "JEZERO 103",
            "lat": 45.973133,
            "lng": 14.422124,
            "prices": {
                "95": 1.495,
                "dizel": 1.462,
                "98": null,
                "100": null,
                "dizel-premium": null,
                "avtoplin-lpg": null,
                "KOEL": 1.103,
                "hvo": null
            },
            "distance": 10770.191170224223,
            "direction": "",
            "open_hours": "vsak delavnik 06:00-21:00\r\nsobote 07:00-20:00\r\nnedelje in prazniki 08:00-17:00",
            "zip_code": "1352"
        },
        {
            "pk": 2062,
            "franchise": 1,
            "name": "PETROL DOM\u017dALE - LJUBLJANSKA",
            "address": "LJUBLJANSKA CESTA 2",
            "lat": 46.13555764,
            "lng": 14.58035495,
            "prices": {
                "95": 1.495,
                "dizel": 1.462,
                "98": null,
                "100": 1.755,
                "dizel-premium": null,
                "avtoplin-lpg": null,
                "KOEL": 1.103,
                "hvo": null
            },
            "distance": 11068.429929818909,
            "direction": "",
            "open_hours": "vsak delavnik 06:00-20:00\r\nsobote 07:00-20:00\r\nnedelje in prazniki 08:00-12:00",
            "zip_code": "1230"
        },
        {
            "pk": 2131,
            "franchise": 1,
            "name": "PETROL \u0160KOFLJICA - PIJAVA GORICA",
            "address": "KO\u010cEVSKA CESTA 100",
            "lat": 45.960092,
            "lng": 14.572453,
            "prices": {
                "95": 1.495,
                "dizel": 1.462,
                "98": null,
                "100": 1.755,
                "dizel-premium": null,
                "avtoplin-lpg": 0.829,
                "KOEL": 1.103,
                "hvo": null
            },
            "distance": 11207.89027681307,
            "direction": "",
            "open_hours": "vsak delavnik 06:00-22:00\r\nsobote 06:00-22:00\r\nnedelje in prazniki 07:00-21:00",
            "zip_code": "1291"
        },
        {
            "pk": 2290,
            "franchise": 13,
            "name": "BS MOL PAY&GO MEDVODE",
            "address": "Gorenjska cesta 12",
            "lat": 46.136526,
            "lng": 14.417849,
            "prices": {
                "95": 1.495,
                "dizel": 1.462,
                "98": null,
                "100": null,
                "dizel-premium": null,
                "avtoplin-lpg": null,
                "KOEL": null,
                "hvo": null
            },
            "distance": 11819.291194671876,
            "direction": "",
            "open_hours": "ZIMSKI OBRATOVALNI \u010cAS: \r\n01.11. - 31.3. \r\nPON - SOB : 05.00 - 22.00\r\nNED: 08.00 - 15.00 \r\n\r\nLETNI OBRATOVALNI \u010cAS: \r\n01.04. - 31.10. \r\nPON - NED : 00.00 - 24.00",
            "zip_code": "1215"
        },
        {
            "pk": 2116,
            "franchise": 1,
            "name": "PETROL MEDVODE - GORENJSKA 1",
            "address": "GORENJSKA CESTA 1",
            "lat": 46.13675212,
            "lng": 14.41630393,
            "prices": {
                "95": 1.495,
                "dizel": 1.462,
                "98": null,
                "100": null,
                "dizel-premium": null,
                "avtoplin-lpg": null,
                "KOEL": 1.103,
                "hvo": null
            },
            "distance": 11909.272134021132,
            "direction": "",
            "open_hours": "vsak delavnik 10:00-20:00\r\nsobote 10:00-13:00",
            "zip_code": "1215"
        },
        {
            "pk": 2115,
            "franchise": 1,
            "name": "PETROL MEDVODE - GORENJSKA 14",
            "address": "GORENJSKA CESTA 14",
            "lat": 46.13700649,
            "lng": 14.4167802,
            "prices": {
                "95": 1.495,
                "dizel": 1.462,
                "98": null,
                "100": 1.755,
                "dizel-premium": null,
                "avtoplin-lpg": null,
                "KOEL": 1.103,
                "hvo": null
            },
            "distance": 11910.705504447966,
            "direction": "",
            "open_hours": "vsak delavnik 06:00-22:00\r\nsobote 06:00-22:00\r\nnedelje in prazniki 07:00-21:00",
            "zip_code": "1215"
        },
        {
            "pk": 2337,
            "franchise": 5,
            "name": "LITIJA",
            "address": "Ljubljanska cesta 10 B",
            "lat": 46.14992,
            "lng": 14.56445,
            "prices": {
                "95": 1.495,
                "dizel": 1.462,
                "98": null,
                "100": 1.789,
                "dizel-premium": 1.839,
                "avtoplin-lpg": null,
                "KOEL": null,
                "hvo": null
            },
            "distance": 11960.270399154326,
            "direction": "",
            "open_hours": "Pon-Sob; 5-23h \r\nNedelja: 8-20h",
            "zip_code": "1270"
        }
    ],
    "position": {
        "lat": 46.0500268,
        "lng": 14.5069289
    }
}